…
This post is all about the R package markovifyR by
Alex Bresler.

Let’s use Whitman’s Leaves of Grass as a starting point.

library(gutenbergr)

leaves_of_grass <- gutenberg_download("1322")

library(tidyverse)
library(tidytext)

(tidyleaves <- tibble(txt = leaves_of_grass$text) %>%
  unnest_tokens(sentence, txt, token = "sentences"))
#> # A tibble: 3,838 x 1
#>    sentence                                                                     
#>    <chr>                                                                        
#>  1 leaves of grass  by walt whitman         come, said my soul,      such verse…
#>  2 inscriptions     one's-self i sing    one's-self i sing, a simple separate p…
#>  3 of physiology from top to toe i sing,   not physiognomy alone nor brain alon…
#>  4 of life immense in passion, pulse, and power,   cheerful, for freest action …
#>  5 as i ponder'd in silence    as i ponder'd in silence,   returning upon my po…
#>  6 it said,   know'st thou not there is but one theme for ever-enduring bards?  
#>  7 and that is the theme of war, the fortune of battles,   the making of perfec…
#>  8 be it so, then i answer'd,   i too haughty shade also sing war, and a longer…
#>  9 in cabin'd ships at sea    in cabin'd ships at sea,   the boundless blue on …
#> 10 here are our thoughts, voyagers' thoughts,   here not the land, firm land, a…
#> # … with 3,828 more rows
…
