…
Let’s use Whitman’s *Leaves of Grass* as a starting point.

``` r
library(gutenbergr)

leaves_of_grass <- gutenberg_download(1322, mirror = "http://www.mirrorservice.org/sites/ftp.ibiblio.org/pub/docs/books/gutenberg/")
```

``` r
library(tidyverse)
library(tidytext)

(tidyleaves <- tibble(txt = leaves_of_grass$text) %>%
  unnest_tokens(sentence, txt, token = "sentences"))
#> # A tibble: 14,875 x 1
#>    sentence                                                      
#>    <chr>                                                         
#>  1 leaves of grass                                               
#>  2 by walt whitman                                               
#>  3 come, said my soul,                                           
#>  4 such verses for my body let us write, (for we are one,)       
#>  5 that should i after return,                                   
#>  6 or, long, long hence, in other spheres,                       
#>  7 there to some group of mates the chants resuming,             
#>  8 (tallying earth’s soil, trees, winds, tumultuous waves,)      
#>  9 ever with pleas’d smile i may keep on,                        
#> 10 ever and ever yet the verses owning--as, first, i here and now
#> # … with 14,865 more rows
```
…
